{
  "resource": "Customers",
  "resource_explanation": null,
  "http_method": "GET",
  "route": "/v1/customers",
  "description": "Listing customers",
  "explanation": null,
  "parameters": [

  ],
  "response_fields": [

  ],
  "requests": [
    {
      "request_method": "GET",
      "request_path": "/v1/customers",
      "request_body": null,
      "request_headers": {
        "Host": "api.lvh.me:3000",
        "Authorization": "eyJhbGciOiJIUzI1NiJ9.eyJ1c2VyX2lkIjoxLCJleHAiOjE1MTQzNDU2MTN9.ASMfiZYvaAI4KiUBravGN2sYPt61mAJ_WdOSca55dPM",
        "Content-Type": "application/json",
        "Accept": "application/json",
        "Cookie": ""
      },
      "request_query_parameters": {
      },
      "request_content_type": "application/json",
      "response_status": 200,
      "response_status_text": "OK",
      "response_body": "[\n  {\n    \"id\": 1,\n    \"name\": \"Lavinia Jenkins\",\n    \"email\": \"wava@gmail.com\",\n    \"created_at\": \"2017-12-26T03:33:34.149Z\",\n    \"updated_at\": \"2017-12-26T03:33:34.149Z\"\n  },\n  {\n    \"id\": 2,\n    \"name\": \"Lavinia Jenkins\",\n    \"email\": \"wava@gmail.com\",\n    \"created_at\": \"2017-12-26T03:33:34.152Z\",\n    \"updated_at\": \"2017-12-26T03:33:34.152Z\"\n  },\n  {\n    \"id\": 3,\n    \"name\": \"Lavinia Jenkins\",\n    \"email\": \"wava@gmail.com\",\n    \"created_at\": \"2017-12-26T03:33:34.155Z\",\n    \"updated_at\": \"2017-12-26T03:33:34.155Z\"\n  },\n  {\n    \"id\": 4,\n    \"name\": \"Lavinia Jenkins\",\n    \"email\": \"wava@gmail.com\",\n    \"created_at\": \"2017-12-26T03:33:34.157Z\",\n    \"updated_at\": \"2017-12-26T03:33:34.157Z\"\n  },\n  {\n    \"id\": 5,\n    \"name\": \"Lavinia Jenkins\",\n    \"email\": \"wava@gmail.com\",\n    \"created_at\": \"2017-12-26T03:33:34.160Z\",\n    \"updated_at\": \"2017-12-26T03:33:34.160Z\"\n  },\n  {\n    \"id\": 6,\n    \"name\": \"Lavinia Jenkins\",\n    \"email\": \"wava@gmail.com\",\n    \"created_at\": \"2017-12-26T03:33:34.163Z\",\n    \"updated_at\": \"2017-12-26T03:33:34.163Z\"\n  },\n  {\n    \"id\": 7,\n    \"name\": \"Lavinia Jenkins\",\n    \"email\": \"wava@gmail.com\",\n    \"created_at\": \"2017-12-26T03:33:34.167Z\",\n    \"updated_at\": \"2017-12-26T03:33:34.167Z\"\n  },\n  {\n    \"id\": 8,\n    \"name\": \"Lavinia Jenkins\",\n    \"email\": \"wava@gmail.com\",\n    \"created_at\": \"2017-12-26T03:33:34.170Z\",\n    \"updated_at\": \"2017-12-26T03:33:34.170Z\"\n  },\n  {\n    \"id\": 9,\n    \"name\": \"Lavinia Jenkins\",\n    \"email\": \"wava@gmail.com\",\n    \"created_at\": \"2017-12-26T03:33:34.173Z\",\n    \"updated_at\": \"2017-12-26T03:33:34.173Z\"\n  },\n  {\n    \"id\": 10,\n    \"name\": \"Lavinia Jenkins\",\n    \"email\": \"wava@gmail.com\",\n    \"created_at\": \"2017-12-26T03:33:34.177Z\",\n    \"updated_at\": \"2017-12-26T03:33:34.177Z\"\n  }\n]",
      "response_headers": {
        "Link": "<http://api.lvh.me:3000/v1/customers?page=2>; rel=\"last\", <http://api.lvh.me:3000/v1/customers?page=2>; rel=\"next\"",
        "Per-Page": "10",
        "Total": "20",
        "Content-Type": "application/json; charset=utf-8",
        "ETag": "W/\"5e0387548039edf05f60b7409a0baedb\"",
        "Cache-Control": "max-age=0, private, must-revalidate",
        "X-Request-Id": "0432011d-e81a-428f-ac72-c056ccc24eff",
        "X-Runtime": "0.035526",
        "Content-Length": "1392"
      },
      "response_content_type": "application/json; charset=utf-8",
      "curl": "curl -g \"http://api.lvh.me:3000/v1/customers\" -X GET \\\n\t-H \"Host: api.lvh.me:3000\" \\\n\t-H \"Authorization: eyJhbGciOiJIUzI1NiJ9.eyJ1c2VyX2lkIjoxLCJleHAiOjE1MTQzNDU2MTN9.ASMfiZYvaAI4KiUBravGN2sYPt61mAJ_WdOSca55dPM\" \\\n\t-H \"Content-Type: application/json\" \\\n\t-H \"Accept: application/json\" \\\n\t-H \"Cookie: \""
    }
  ]
}