{
  "resource": "Books",
  "resource_explanation": null,
  "http_method": "GET",
  "route": "/v1/books",
  "description": "Listing books",
  "explanation": null,
  "parameters": [

  ],
  "response_fields": [

  ],
  "requests": [
    {
      "request_method": "GET",
      "request_path": "/v1/books",
      "request_body": null,
      "request_headers": {
        "Host": "api.lvh.me:3000",
        "Authorization": "eyJhbGciOiJIUzI1NiJ9.eyJ1c2VyX2lkIjoxLCJleHAiOjE1MTQzNDU2MTN9.ASMfiZYvaAI4KiUBravGN2sYPt61mAJ_WdOSca55dPM",
        "Content-Type": "application/json",
        "Accept": "application/json",
        "Cookie": ""
      },
      "request_query_parameters": {
      },
      "request_content_type": "application/json",
      "response_status": 200,
      "response_status_text": "OK",
      "response_body": "[\n  {\n    \"id\": 1,\n    \"name\": \"Blithe Spirit\",\n    \"pages\": 517,\n    \"leased\": false,\n    \"year\": 1978,\n    \"customer_id\": null,\n    \"created_at\": \"2017-12-26T03:33:33.951Z\",\n    \"updated_at\": \"2017-12-26T03:33:33.951Z\"\n  },\n  {\n    \"id\": 2,\n    \"name\": \"Blithe Spirit\",\n    \"pages\": 517,\n    \"leased\": false,\n    \"year\": 1978,\n    \"customer_id\": null,\n    \"created_at\": \"2017-12-26T03:33:33.955Z\",\n    \"updated_at\": \"2017-12-26T03:33:33.955Z\"\n  },\n  {\n    \"id\": 3,\n    \"name\": \"Blithe Spirit\",\n    \"pages\": 517,\n    \"leased\": false,\n    \"year\": 1978,\n    \"customer_id\": null,\n    \"created_at\": \"2017-12-26T03:33:33.959Z\",\n    \"updated_at\": \"2017-12-26T03:33:33.959Z\"\n  },\n  {\n    \"id\": 4,\n    \"name\": \"Blithe Spirit\",\n    \"pages\": 517,\n    \"leased\": false,\n    \"year\": 1978,\n    \"customer_id\": null,\n    \"created_at\": \"2017-12-26T03:33:33.962Z\",\n    \"updated_at\": \"2017-12-26T03:33:33.962Z\"\n  },\n  {\n    \"id\": 5,\n    \"name\": \"Blithe Spirit\",\n    \"pages\": 517,\n    \"leased\": false,\n    \"year\": 1978,\n    \"customer_id\": null,\n    \"created_at\": \"2017-12-26T03:33:33.965Z\",\n    \"updated_at\": \"2017-12-26T03:33:33.965Z\"\n  },\n  {\n    \"id\": 6,\n    \"name\": \"Blithe Spirit\",\n    \"pages\": 517,\n    \"leased\": false,\n    \"year\": 1978,\n    \"customer_id\": null,\n    \"created_at\": \"2017-12-26T03:33:33.967Z\",\n    \"updated_at\": \"2017-12-26T03:33:33.967Z\"\n  },\n  {\n    \"id\": 7,\n    \"name\": \"Blithe Spirit\",\n    \"pages\": 517,\n    \"leased\": false,\n    \"year\": 1978,\n    \"customer_id\": null,\n    \"created_at\": \"2017-12-26T03:33:33.971Z\",\n    \"updated_at\": \"2017-12-26T03:33:33.971Z\"\n  },\n  {\n    \"id\": 8,\n    \"name\": \"Blithe Spirit\",\n    \"pages\": 517,\n    \"leased\": false,\n    \"year\": 1978,\n    \"customer_id\": null,\n    \"created_at\": \"2017-12-26T03:33:33.973Z\",\n    \"updated_at\": \"2017-12-26T03:33:33.973Z\"\n  },\n  {\n    \"id\": 9,\n    \"name\": \"Blithe Spirit\",\n    \"pages\": 517,\n    \"leased\": false,\n    \"year\": 1978,\n    \"customer_id\": null,\n    \"created_at\": \"2017-12-26T03:33:33.976Z\",\n    \"updated_at\": \"2017-12-26T03:33:33.976Z\"\n  },\n  {\n    \"id\": 10,\n    \"name\": \"Blithe Spirit\",\n    \"pages\": 517,\n    \"leased\": false,\n    \"year\": 1978,\n    \"customer_id\": null,\n    \"created_at\": \"2017-12-26T03:33:33.978Z\",\n    \"updated_at\": \"2017-12-26T03:33:33.978Z\"\n  }\n]",
      "response_headers": {
        "Link": "<http://api.lvh.me:3000/v1/books?page=2>; rel=\"last\", <http://api.lvh.me:3000/v1/books?page=2>; rel=\"next\"",
        "Per-Page": "10",
        "Total": "20",
        "Content-Type": "application/json; charset=utf-8",
        "ETag": "W/\"12f3b315808460465b5356f1eac58ea4\"",
        "Cache-Control": "max-age=0, private, must-revalidate",
        "X-Request-Id": "8bdc96ad-6ffe-4b48-b2f0-917fa852f758",
        "X-Runtime": "0.084489",
        "Content-Length": "1702"
      },
      "response_content_type": "application/json; charset=utf-8",
      "curl": "curl -g \"http://api.lvh.me:3000/v1/books\" -X GET \\\n\t-H \"Host: api.lvh.me:3000\" \\\n\t-H \"Authorization: eyJhbGciOiJIUzI1NiJ9.eyJ1c2VyX2lkIjoxLCJleHAiOjE1MTQzNDU2MTN9.ASMfiZYvaAI4KiUBravGN2sYPt61mAJ_WdOSca55dPM\" \\\n\t-H \"Content-Type: application/json\" \\\n\t-H \"Accept: application/json\" \\\n\t-H \"Cookie: \""
    }
  ]
}